C:\Users\sjaltare\eclipse-workspace\gradedlab_sarang\src\test\java\com\gradedlab\core\DancerTest.java
C:\Users\sjaltare\eclipse-workspace\gradedlab_sarang\src\test\java\com\gradedlab\core\VocalistTest.java
C:\Users\sjaltare\eclipse-workspace\gradedlab_sarang\src\test\java\com\gradedlab\core\PerformerTest.java
C:\Users\sjaltare\eclipse-workspace\gradedlab_sarang\src\test\java\com\gradedlab\core\AuditionTest.java
